*** Life<FredkinCell> 19x19 ***

Generation = 0, Population = 4.
-------------------
-------------------
-------------------
---0---------------
-------------------
-------------------
-------------------
-------------------
---------------0---
-------------------
-------------------
-------------------
-------------------
---0---------------
-------------------
-------------------
-------------------
--0----------------
-------------------

Generation = 8, Population = 14.
---------------0---
-------------------
-------------------
-----------0-------
-------------------
---0---------------
-------------------
-------------------
-------0-------0---
--0----------------
-------------------
---2---------------
-------------------
--11-------0-------
-------------------
-------------------
---------------0---
---31-----0--------
-------------------

*** Life<FredkinCell> 16x9 ***

Generation = 0, Population = 24.
---------
-0--0--0-
---------
0----00--
---------
------0--
0----0---
0--0-----
---------
------0--
0----0---
0000-0---
---------
-------0-
0---0----
---0---0-

Generation = 12, Population = 53.
111-04---
---6-5-12
--2---1-0
-34---34-
2----3---
1---4-6--
52--42--3
-2--2-7--
---------
-2--3-51-
-24-2----
--3537---
---------
40--35-25
-07--23--
--1---4-0

*** Life<FredkinCell> 15x7 ***

Generation = 0, Population = 29.
------0
--0----
0-000-0
--0----
-0---0-
---00--
-0-0---
00-0---
---0---
----000
0----0-
-0-----
0---0--
---0-00
-------

*** Life<FredkinCell> 19x17 ***

Generation = 0, Population = 55.
-0-0-------0--0--
-0-----0-0----0--
------------0----
0----0-------0-00
--0-------------0
------------0----
--00------0--0---
-----0-----0-00--
----------0--0---
------0---0------
---------0-0-----
-0-------0-------
----------0------
-----00----------
----0----0--0----
-00-0---0-0--0---
-0-0--0-0-0------
----0-0--0---0---
---0-------------

*** Life<FredkinCell> 3x19 ***

Generation = 0, Population = 10.
----00-----0-------
---------0-00-----0
-00-0--------------

Generation = 16, Population = 16.
---1-----624-----33
---324----34-4-----
----------0-73---0-

*** Life<FredkinCell> 9x16 ***

Generation = 0, Population = 42.
0-0------0-----0
-0--0----0----00
0---00-0----000-
-0-0----0---000-
0---0-00--------
-0-0-----0-0--0-
---0--------0--0
--0-0--00-0-0--0
0---------------

Generation = 5, Population = 67.
10-020--0--1----
--0130-1-110--3-
----3-----3-1-3-
----1-1---0-1110
-0-----21-1202--
0-0-----0--0---1
-201-10---22-1--
-4--11-2-0-1-1-3
-0-1001-0-004004

Generation = 10, Population = 73.
-32--1-3-----142
--34--13-24311--
-04---22-1-335--
-2-134--1301---3
1-1--2---2241401
-1-334--1-4-2-32
13-6-1--1-4-----
6-2-14-26-2-6-1-
2-1-3--4---35---

Generation = 15, Population = 72.
-6-2---61-0-5-55
43--7---5----3-6
-1-23--232-65554
--32454-2-3--43-
20--5---42364---
223-4-1-3-4----2
2--7---41-466---
763--4-----1-13+
--33--69-3-68---

*** Life<FredkinCell> 13x5 ***

Generation = 0, Population = 21.
0----
--0--
00-0-
0--00
---00
-----
--0--
--00-
-----
0-000
0-00-
0----
-----

Generation = 3, Population = 31.
1---0
0-01-
---11
-1-1-
--011
----2
1-11-
02-30
200-0
-11--
----1
100--
--1--

Generation = 6, Population = 31.
-----
1-3-2
----4
--31-
11122
202--
--422
--1-0
---0-
-1-21
-1--1
21-32
-0--0

Generation = 9, Population = 33.
--1--
1-4--
-4145
5131-
-4-3-
--503
--5-3
-----
201-2
-----
12201
---43
215-3

Generation = 12, Population = 35.
---2-
2---5
-4156
--62-
1513-
--53-
---4-
2-34-
51---
3-1-2
23231
4-24-
-16-4

*** Life<FredkinCell> 18x16 ***

Generation = 0, Population = 31.
-0---0----------
----0-----0-----
-0--------------
----------------
--------------0-
---0---------0--
----------0-----
----------------
---0-------0----
-00---------0---
------0---------
-------0--------
0-------0-------
---0-----0------
---0---------0-0
-----------0--0-
----0-0---0-----
---0--------0-0-

Generation = 4, Population = 80.
-0---0---0----0-
0--00-0-0-0--11-
----------1-----
----------------
-2-1-1----21--0-
-21-1--0-00-1--0
-0------------0-
-------0--------
0-------1-----00
31---00-10---0--
--02---------0-0
---2----------0-
--011-0---010---
-202-2-0-----10-
------20-0-3-2-0
---1------1-0--0
--2-2---------0-
---2---00133----

Generation = 8, Population = 85.
-2-0-2---222-0--
-011---------21-
-----11--3----1-
-------2--------
04----0-0-2-----
----10---40-----
-413-2-------100
-----------1--1-
-4--122---10-2--
---132---1----2-
20------------1-
---4--------1-00
2---3---0-2---2-
-4-----------121
-----1-2-02--3-1
------1--22--1--
---1----0--15---
-0021-11--54----

*** Life<FredkinCell> 10x3 ***

Generation = 0, Population = 14.
-00
00-
-00
-00
-0-
--0
0--
---
0--
00-

*** Life<FredkinCell> 18x15 ***

Generation = 0, Population = 10.
---------------
0--------------
-0-------------
---------------
---0-----------
---------------
---------------
---------------
---------------
----------00---
---------------
---------------
0--------------
----0---0------
---------------
---------------
-----------0---
----------0----

Generation = 2, Population = 31.
-0-------------
0-0------------
---------------
0--------------
-----0---------
---------------
---0-----------
----------00---
---------------
--------01--10-
0--------------
----0---0-00---
0-0------------
--0-------0----
0----------0---
----0---0-0----
---------0---0-
--------0-0-0--

Generation = 4, Population = 35.
-0-0-----------
0-0-0----------
-0---0---------
---------------
-------0-------
0---------00---
-0-------------
---------------
0--0-----------
----0-012-----1
---------------
---------------
--2-1------1---
0---0---0--00--
---------------
----------0----
0------0---0---
----0-0-0-----0

Generation = 6, Population = 75.
-0-------------
----0-0--------
-0-0-----------
--0-0-----00---
---------0-----
0-0-----01--10-
0------0-------
1---0-000-11--0
0-1--0---------
--0-00--431-2-1
0-001------0---
0-----00---20-0
1-2-3-0--0---0-
0--------11--10
1-0-1--0-------
1-----0-0--0--0
0-0--0-------0-
--0---0-----0--

*** Life<FredkinCell> 2x19 ***

Generation = 0, Population = 2.
------0------------
----------0--------

Generation = 4, Population = 6.
--0---0---1--------
------1---0---0----

Generation = 8, Population = 6.
0-----4-------1----
--1-------4-------0

Generation = 12, Population = 10.
1---2-4-------1---0
1-3-------4-----2-0

Generation = 16, Population = 6.
------4-4-------1--
----2-----4-3------

*** Life<FredkinCell> 20x16 ***

Generation = 0, Population = 34.
--0----------0--
------------0---
----------0-----
----0-----0-----
----------------
--0-0----0-00-0-
----0----------0
-------00-------
----------------
----------------
----0-0---0-----
--------0-------
---------0--0---
--0---00--------
0---------------
-----0---000----
--------0-------
----------------
--------0-----0-
--------------0-

*** Life<FredkinCell> 13x5 ***

Generation = 0, Population = 41.
0-00-
--00-
0-00-
000--
00-00
-000-
0-0-0
-0000
0--0-
00000
000-0
0-0--
00--0

Generation = 1, Population = 40.
----0
-0110
101-0
11-00
-1--1
0-1-0
----1
0111-
100-0
1111-
11101
--10-
-1-0-

Generation = 2, Population = 31.
-00-1
--2-1
-----
-2011
02---
-0---
-0--2
-2220
2-1--
2---0
-2--2
00-1-
0-010

Generation = 3, Population = 36.
01--2
--3-2
-0-0-
----2
13-01
--1-0
0---3
--3--
302--
3-111
131-3
--120
11121

Generation = 4, Population = 37.
12-03
00-13
1-1-0
1--13
24012
---0-
-0-04
--420
--3-0
--2--
--2--
-0231
2-23-

*** Life<FredkinCell> 14x12 ***

Generation = 0, Population = 1.
------------
------------
------------
------------
------------
------------
------------
------------
------------
------------
------------
--------0---
------------
------------

Generation = 3, Population = 15.
------------
------------
------------
------------
------------
------------
------------
------------
--------0---
-------0-0--
------0-0-0-
-----0-0-0-0
------0-0-0-
-------0-0--

Generation = 6, Population = 12.
------------
------------
------------
------------
------------
--------0---
------------
------0---0-
------------
----0---0---
------------
--0---0-0---
------------
----0-0-0-0-

Generation = 9, Population = 13.
------------
------------
--------0---
-------0-0--
--------0---
------------
------------
------------
--------0---
-------0-0--
0-----------
-0-----0-0--
0-------0---
------------

Generation = 12, Population = 6.
------------
------------
------------
----0-------
------------
--------0---
------------
0-----------
------------
----0-------
------------
--0---------
------------
0-----------

Generation = 15, Population = 37.
----0-------
---0-0------
--0-0-0-0---
-0-0-0---0--
0-0-0---0-0-
-0-0---0-0-0
--0---0-0-0-
-----0-0-0--
--0-0-0-0---
-0---0-0----
0-----0-----
------------
------------
------------

*** Life<FredkinCell> 14x6 ***

Generation = 0, Population = 49.
0--000
00-00-
--0---
0--0-0
000-0-
00000-
0-000-
00-0-0
-0---0
--000-
000--0
0----0
00000-
0-00-0

Generation = 11, Population = 37.
-3--48
13----
-056--
50----
4-0---
--144-
-1---1
1--31-
1423--
5-4---
--2-13
----03
--2-8-
-4-261

*** Life<FredkinCell> 13x4 ***

Generation = 0, Population = 38.
-0-0
-000
000-
0-00
00-0
0000
0000
--00
0-0-
0-0-
00-0
-000
0000

Generation = 10, Population = 29.
-554
-3--
--66
4344
4--2
-5--
161-
21--
-1--
2---
30--
062-
4830

*** Life<FredkinCell> 9x4 ***

Generation = 0, Population = 25.
0---
0000
00-0
0-00
-000
000-
0-0-
0-00
0-00

*** Life<FredkinCell> 10x11 ***

Generation = 0, Population = 9.
-----00----
-----------
---------0-
-0---------
-----------
-----------
--0--0----0
-0---------
-----------
------0----

*** Life<FredkinCell> 10x3 ***

Generation = 0, Population = 29.
000
000
000
000
000
000
000
000
-00
000

Generation = 1, Population = 19.
-1-
1-1
1-1
1-1
1-1
1-1
1-1
--1
011
11-

Generation = 2, Population = 5.
---
202
---
---
---
---
2--
---
-2-
---

Generation = 3, Population = 15.
010
3-3
101
---
---
1--
-0-
00-
0-1
-1-

Generation = 4, Population = 8.
---
---
---
101
1--
---
211
---
1--
---

Generation = 5, Population = 14.
---
---
101
--2
2-1
-01
3-2
-01
-2-
1--

Generation = 6, Population = 9.
---
303
2--
---
-0-
112
---
---
-3-
---

Generation = 7, Population = 19.
010
--4
3-1
10-
-1-
223
312
-0-
1-1
-1-

Generation = 8, Population = 8.
1--
---
402
---
2--
---
---
011
---
---

Generation = 9, Population = 17.
-1-
-04
5-3
-02
-1-
2--
312
1-2
131
---

Generation = 10, Population = 10.
12-
---
---
---
-2-
323
4--
---
---
110

Generation = 11, Population = 17.
230
30-
---
-0-
-3-
-34
5-2
1--
131
2-1

Generation = 12, Population = 14.
-41
---
5--
112
2--
---
613
---
2--
312

Generation = 13, Population = 21.
252
304
6-3
2-3
3-1
-34
7-4
-12
3-1
--3

Generation = 14, Population = 17.
-6-
415
-0-
---
43-
345
---
123
-3-
314

Generation = 15, Population = 15.
-7-
5-6
-1-
2--
---
-56
---
234
3-1
425

Generation = 16, Population = 8.
---
---
6--
---
431
367
7--
---
---
---

Generation = 17, Population = 10.
---
5--
-1-
-13
-4-
47-
8-4
2--
---
---

Generation = 18, Population = 10.
2--
---
-2-
224
---
---
-1-
334
3--
---

Generation = 19, Population = 17.
-7-
51-
-3-
335
441
-7-
-2-
-45
4-1
4--

Generation = 20, Population = 13.
-82
626
6--
---
---
---
8--
---
532
525

*** Life<FredkinCell> 3x4 ***

Generation = 0, Population = 12.
0000
0000
0000

*** Life<FredkinCell> 5x9 ***

Generation = 0, Population = 17.
0-00-0--0
00----0-0
0-0--0---
---0---00
-----0-0-

*** Life<FredkinCell> 9x17 ***

Generation = 0, Population = 34.
---0---00-----00-
-------0-00---0--
-0--000------0---
---0---00--0-0---
----000--0-0-----
-------------00--
------00---------
--00-0-0-------0-
---------0-------

Generation = 5, Population = 68.
0---2--3---1-213-
00--0-2--3-1--3-3
----13-0-1-001-1-
----121----52--0-
2-33113------2-00
0---0---00-0-33--
--22-1-0-----2--0
342---23-20---1--
000----103-1-10--

*** Life<FredkinCell> 8x9 ***

Generation = 0, Population = 3.
--------0
---------
---------
---------
0--------
--------0
---------
---------

Generation = 2, Population = 10.
------0--
---------
0-------0
--------0
0-0------
------0-0
0--------
--------0

Generation = 4, Population = 11.
0---0-0--
--------1
--------2
---------
--0-0---0
----0-0--
---------
--------0

Generation = 6, Population = 17.
---------
------1-3
0-0------
----1-0-1
0-0-2----
--1-2-0--
--0-1---1
----0----

*** Life<FredkinCell> 3x17 ***

Generation = 0, Population = 20.
-00--00-00-0---0-
00000--0---0-0---
0--000-----------

Generation = 4, Population = 27.
1-0-0-20-20101---
-412210-11-4---1-
100-2--302-------

*** Life<FredkinCell> 3x8 ***

Generation = 0, Population = 17.
00---0-0
0-000000
0-0000-0

*** Life<FredkinCell> 10x8 ***

Generation = 0, Population = 38.
-0--0---
-000-0-0
-----000
00-0-0--
00-0-0-0
---0-0-0
--000---
---00-00
00--0--0
00-00-0-

Generation = 3, Population = 43.
03-11---
00--2-0-
20-00-01
---1-10-
11--1-13
-0-123--
1-3--02-
-0---110
1-20--2-
0--3111-

Generation = 6, Population = 40.
-4--12--
-1----11
3-00--12
11-21--2
-2--2---
11-434-2
-2--11--
-100---1
--3-01-2
10--12-0

Generation = 9, Population = 36.
---5--0-
-4-2--11
-130---5
---2-4--
53-03-15
-42-4-2-
----12--
-2----1-
-36-013-
2--52-21

*** Life<FredkinCell> 1x1 ***

Generation = 0, Population = 1.
0

*** Life<FredkinCell> 8x18 ***

Generation = 0, Population = 50.
-0-0-00--00---0---
--0-00--00-00-----
-0-00----0--0-0--0
--0----0-0-00-0-0-
00---00-0-00------
0--000--0-00------
--------00--0--0--
-0--0-0-------0---

*** Life<FredkinCell> 12x5 ***

Generation = 0, Population = 27.
-0--0
-0---
-0--0
000-0
0-00-
-00--
-0-0-
-0--0
-0000
----0
0--0-
0---0

Generation = 3, Population = 24.
0--2-
-121-
--0-1
01--1
11-3-
0----
---1-
--0--
00---
----3
3--12
1---1

*** Life<FredkinCell> 17x17 ***

Generation = 0, Population = 45.
-----------------
---0-0----0------
--0-----00-------
0---------0-0---0
-----------------
-----0-----------
---0-0---00----0-
---0--0---00----0
--0--0-0---------
------------0---0
-----------------
0-0----0-0--0--00
-----------00--0-
---------0-------
------0-0--00-0--
--0-------0--0---
-----------------
